ALTERNED_BIT_VERIF/tb.vcd
$date
     Dec 13, 2022       10:10:58
$end

$version
 SystemC 2.3.3-Accellera --- Mar 22 2020 15:59:11
$end

$timescale
     1 ps
$end

$scope module SystemC $end
$var wire    1  aaaaa  clk       $end
$var wire    1  aaaab  Err       $end
$var wire    1  aaaac  E       $end
$upscope $end
$enddefinitions  $end

$comment
All initial values are dumped below at time 0 sec = 0 timescale units.
$end

$dumpvars
0aaaaa
0aaaab
0aaaac
$end

#5000
1aaaaa
1aaaac

#10000
0aaaaa

#15000
1aaaaa
1aaaab

#20000
0aaaaa
0aaaac

#22000
1aaaac

#25000
1aaaaa

#30000
0aaaaa

#32000
0aaaac

#35000
1aaaaa
0aaaab

#40000
0aaaaa

#42000
1aaaac

#45000
1aaaaa

#50000
0aaaaa

#52000
0aaaac

#55000
1aaaaa

#60000
0aaaaa

#62000
1aaaac

#65000
1aaaaa

#70000
0aaaaa

#72000
0aaaac

#75000
1aaaaa

#80000
0aaaaa

#82000
1aaaac

#85000
1aaaaa

#90000
0aaaaa

#92000
0aaaac

#95000
1aaaaa

#100000
0aaaaa

#102000
1aaaac

#105000
1aaaaa

#110000
0aaaaa

#112000
0aaaac

#115000
1aaaaa

#120000
0aaaaa

#122000
1aaaac

#125000
1aaaaa

#130000
0aaaaa

#132000
0aaaac

#135000
1aaaaa

#140000
0aaaaa

#142000
1aaaac

#145000
1aaaaa

#150000
0aaaaa

#152000
0aaaac

#155000
1aaaaa

#160000
0aaaaa

#162000
1aaaac

#165000
1aaaaa

#170000
0aaaaa

#172000
0aaaac

#175000
1aaaaa

#180000
0aaaaa

#182000
1aaaac

#185000
1aaaaa

#190000
0aaaaa

#192000
0aaaac

#195000
1aaaaa

#200000
0aaaaa

#202000
1aaaac

#205000
1aaaaa

#210000
0aaaaa

#212000
0aaaac

#215000
1aaaaa

#220000
0aaaaa

#222000
1aaaac

