ALTERNED_BIT_VERIF/tb.vcd
$date
     Dec 13, 2022       14:05:55
$end

$version
 SystemC 2.3.3-Accellera --- Mar 22 2020 15:59:11
$end

$timescale
     1 ps
$end

$scope module SystemC $end
$var wire    1  aaaaa  clk       $end
$var wire    1  aaaab  Err       $end
$var wire    1  aaaac  E       $end
$upscope $end
$enddefinitions  $end

$comment
All initial values are dumped below at time 0 sec = 0 timescale units.
$end

$dumpvars
0aaaaa
0aaaab
0aaaac
$end

#5000
1aaaaa
1aaaab

#10000
0aaaaa
1aaaac

#15000
1aaaaa
0aaaab

#20000
0aaaaa
0aaaac

#25000
1aaaaa

#30000
0aaaaa

#35000
1aaaaa
1aaaab

#40000
0aaaaa
1aaaac

#45000
1aaaaa
0aaaab

#50000
0aaaaa

#55000
1aaaaa
1aaaab

#60000
0aaaaa

#65000
1aaaaa

#70000
0aaaaa
0aaaac

#75000
1aaaaa
0aaaab

#80000
0aaaaa
1aaaac

#85000
1aaaaa

#90000
0aaaaa
0aaaac

#95000
1aaaaa

#100000
0aaaaa
1aaaac

#105000
1aaaaa

#110000
0aaaaa
0aaaac

#115000
1aaaaa

#120000
0aaaaa
1aaaac

#125000
1aaaaa

#130000
0aaaaa
0aaaac

#135000
1aaaaa

#140000
0aaaaa
1aaaac

#145000
1aaaaa

#150000
0aaaaa
0aaaac

#155000
1aaaaa

#160000
0aaaaa
1aaaac

#165000
1aaaaa

#170000
0aaaaa
0aaaac

#175000
1aaaaa

#180000
0aaaaa
1aaaac

#185000
1aaaaa

#190000
0aaaaa
0aaaac

#195000
1aaaaa

#200000
0aaaaa
1aaaac

#205000
1aaaaa

#210000
0aaaaa
0aaaac

#215000
1aaaaa

#220000
0aaaaa
1aaaac

#225000
1aaaaa

#230000
0aaaaa
0aaaac

#235000
1aaaaa

#240000
0aaaaa
1aaaac

#245000
1aaaaa

#250000
0aaaaa
0aaaac

#255000
1aaaaa

#260000
0aaaaa
1aaaac

